[1] Config.pm:425> INFO - This is Biber 1.7 (beta)
[1] Config.pm:428> INFO - Logfile is 'refs.bib.blg'
[388] biber-darwin:252> INFO - === Wed Oct 23, 2013, 12:45:25
[850] Utils.pm:185> ERROR - Cannot find control file 'refs.bib.bcf'! - did you pass the "backend=biber" option to BibLaTeX?
[851] Biber.pm:109> INFO - ERRORS: 1
