\relax 
\pgfsyspdfmark {pgfid1}{13924789}{40631616}
\pgfsyspdfmark {pgfid2}{18257480}{40631616}
\pgfsyspdfmark {pgfid3}{22517355}{40631616}
\pgfsyspdfmark {pgfid5}{13754030}{38311438}
\pgfsyspdfmark {pgfid6}{17443327}{38311438}
