# Fdb version 3
["pdflatex"] 1377563292 "fig.tex" "fig.pdf" "fig" 1377563295
  "/Users/romancontreras/Library/texmf/tex/generic/pgf/basiclayer/pgfcore.code.tex" 1375038990 1006 b103be0bfc8c1682ff1fa9760697a329 ""
  "/Users/romancontreras/Library/texmf/tex/generic/pgf/basiclayer/pgfcorearrows.code.tex" 1375038990 18376 36284d607bf8a7fb57f6b627cbe1c59b ""
  "/Users/romancontreras/Library/texmf/tex/generic/pgf/basiclayer/pgfcoreexternal.code.tex" 1375038990 19287 b2041c22301def2360f03c004d16068d ""
  "/Users/romancontreras/Library/texmf/tex/generic/pgf/basiclayer/pgfcoregraphicstate.code.tex" 1375038990 5740 41a0661073cfdb42a1c22172943eb193 ""
  "/Users/romancontreras/Library/texmf/tex/generic/pgf/basiclayer/pgfcoreimage.code.tex" 1375038990 7041 a891ad72049e17c4e366c40ca37b0ccb ""
  "/Users/romancontreras/Library/texmf/tex/generic/pgf/basiclayer/pgfcorelayers.code.tex" 1375038990 4625 40c07e9f6f2f7c674704b3f2055560ce ""
  "/Users/romancontreras/Library/texmf/tex/generic/pgf/basiclayer/pgfcoreobjects.code.tex" 1375038990 2631 7eefa6cdbefd8d4e2bad7262cf1094cd ""
  "/Users/romancontreras/Library/texmf/tex/generic/pgf/basiclayer/pgfcorepathconstruct.code.tex" 1375038990 44141 3ac1a296a7634794cd7fcc38f8980e98 ""
  "/Users/romancontreras/Library/texmf/tex/generic/pgf/basiclayer/pgfcorepathprocessing.code.tex" 1375038990 14189 bb3d2e0069dd43b25211385d7cac9d2c ""
  "/Users/romancontreras/Library/texmf/tex/generic/pgf/basiclayer/pgfcorepathusage.code.tex" 1375038990 8230 413afc07bc35aaac8dde4f682ba73feb ""
  "/Users/romancontreras/Library/texmf/tex/generic/pgf/basiclayer/pgfcorepatterns.code.tex" 1375038990 9426 1e850e47bf24a2198fc7039535ef797d ""
  "/Users/romancontreras/Library/texmf/tex/generic/pgf/basiclayer/pgfcorepoints.code.tex" 1375038990 34208 19c6f341d2ead0b77376ed7d1b225144 ""
  "/Users/romancontreras/Library/texmf/tex/generic/pgf/basiclayer/pgfcorequick.code.tex" 1375038990 3052 e5672c657232fd63b0a9853b0746297c ""
  "/Users/romancontreras/Library/texmf/tex/generic/pgf/basiclayer/pgfcorescopes.code.tex" 1375038990 16316 ce4347b676c7f18c6c8e9c6c9a4be6ce ""
  "/Users/romancontreras/Library/texmf/tex/generic/pgf/basiclayer/pgfcoreshade.code.tex" 1375038990 21541 4cd19f8ff7dd74d5aa7d803a6397af84 ""
  "/Users/romancontreras/Library/texmf/tex/generic/pgf/basiclayer/pgfcoretransformations.code.tex" 1375038990 18076 ae748a75c1f38f75c49f40ac2087a4e2 ""
  "/Users/romancontreras/Library/texmf/tex/generic/pgf/basiclayer/pgfcoretransparency.code.tex" 1375038990 8653 f7a59cf316a0638764d5c9b2bfde9c21 ""
  "/Users/romancontreras/Library/texmf/tex/generic/pgf/frontendlayer/tikz/libraries/tikzlibraryarrows.code.tex" 1375038990 437 cf40f841f40822be6cb995f8b47112fd ""
  "/Users/romancontreras/Library/texmf/tex/generic/pgf/frontendlayer/tikz/libraries/tikzlibrarycalc.code.tex" 1375038990 15934 b941bd3ae7b33179029513707d1f0ff6 ""
  "/Users/romancontreras/Library/texmf/tex/generic/pgf/frontendlayer/tikz/libraries/tikzlibrarydecorations.code.tex" 1375038990 5484 4bb4a5cbbd05d6f17a261b59dbd014f1 ""
  "/Users/romancontreras/Library/texmf/tex/generic/pgf/frontendlayer/tikz/libraries/tikzlibrarydecorations.markings.code.tex" 1375038990 782 2479083eef1ef47450770d40ad81f937 ""
  "/Users/romancontreras/Library/texmf/tex/generic/pgf/frontendlayer/tikz/libraries/tikzlibrarydecorations.pathmorphing.code.tex" 1375038990 319 d246cee5ce1aaf2afe558acd4731d5ba ""
  "/Users/romancontreras/Library/texmf/tex/generic/pgf/frontendlayer/tikz/libraries/tikzlibrarydecorations.pathreplacing.code.tex" 1375038990 1255 7940bad47e253420d587a4a875c7c06c ""
  "/Users/romancontreras/Library/texmf/tex/generic/pgf/frontendlayer/tikz/libraries/tikzlibrarydecorations.shapes.code.tex" 1375038990 313 2b6ea57e434a5e8c9122c9aaafd4746b ""
  "/Users/romancontreras/Library/texmf/tex/generic/pgf/frontendlayer/tikz/libraries/tikzlibraryfadings.code.tex" 1375038990 1298 83d7449064b0f0f089f1898a244b6d16 ""
  "/Users/romancontreras/Library/texmf/tex/generic/pgf/frontendlayer/tikz/libraries/tikzlibrarypatterns.code.tex" 1375038990 884 60c3d56b80194544f9ecdae97dd5e286 ""
  "/Users/romancontreras/Library/texmf/tex/generic/pgf/frontendlayer/tikz/libraries/tikzlibrarypositioning.code.tex" 1375038990 4034 0a8cd33cf30d262ec971380666acb2d0 ""
  "/Users/romancontreras/Library/texmf/tex/generic/pgf/frontendlayer/tikz/libraries/tikzlibraryshapes.arrows.code.tex" 1375038990 527 a8d3e34fbab3dc317cf9b06aa5cdc2e4 ""
  "/Users/romancontreras/Library/texmf/tex/generic/pgf/frontendlayer/tikz/libraries/tikzlibraryshapes.callouts.code.tex" 1375038990 1158 d6338189706f4587fbc6175c0fb41f17 ""
  "/Users/romancontreras/Library/texmf/tex/generic/pgf/frontendlayer/tikz/libraries/tikzlibraryshapes.code.tex" 1375038990 607 40dc15d3efcf10f095866a94bd544bc1 ""
  "/Users/romancontreras/Library/texmf/tex/generic/pgf/frontendlayer/tikz/libraries/tikzlibraryshapes.geometric.code.tex" 1375038990 457 ffe9f8b9d108b5f729fd86c78c63589a ""
  "/Users/romancontreras/Library/texmf/tex/generic/pgf/frontendlayer/tikz/libraries/tikzlibraryshapes.misc.code.tex" 1375038990 447 e87a0add254801e837fa6c18f61f340f ""
  "/Users/romancontreras/Library/texmf/tex/generic/pgf/frontendlayer/tikz/libraries/tikzlibraryshapes.multipart.code.tex" 1375038990 1004 86af66805a9d0b62bd41ea0796a64d50 ""
  "/Users/romancontreras/Library/texmf/tex/generic/pgf/frontendlayer/tikz/libraries/tikzlibraryshapes.symbols.code.tex" 1375038990 590 7e11000a24bbee9ae2a4cd0e5d88e58c ""
  "/Users/romancontreras/Library/texmf/tex/generic/pgf/frontendlayer/tikz/libraries/tikzlibrarysnakes.code.tex" 1375038990 2819 c993ed3346253cf5aabdec18c56fabb2 ""
  "/Users/romancontreras/Library/texmf/tex/generic/pgf/frontendlayer/tikz/libraries/tikzlibrarytopaths.code.tex" 1375038990 11599 d694704a88e2f9007c996d3a6a4d629c ""
  "/Users/romancontreras/Library/texmf/tex/generic/pgf/frontendlayer/tikz/tikz.code.tex" 1375038990 164179 db380ef183eba04431a9c6267a2bf96e ""
  "/Users/romancontreras/Library/texmf/tex/generic/pgf/libraries/decorations/pgflibrarydecorations.markings.code.tex" 1375038990 5474 0bdd9682a1c75302247bda445937e4d2 ""
  "/Users/romancontreras/Library/texmf/tex/generic/pgf/libraries/decorations/pgflibrarydecorations.pathmorphing.code.tex" 1375038990 8854 7be3c3b9eb0de90885a881085ce8e118 ""
  "/Users/romancontreras/Library/texmf/tex/generic/pgf/libraries/decorations/pgflibrarydecorations.pathreplacing.code.tex" 1375038990 7089 02ec01183269fb6991e0be82d034128a ""
  "/Users/romancontreras/Library/texmf/tex/generic/pgf/libraries/decorations/pgflibrarydecorations.shapes.code.tex" 1375038990 16524 4357266d796a9201a40ebfae36a831c0 ""
  "/Users/romancontreras/Library/texmf/tex/generic/pgf/libraries/pgflibraryarrows.code.tex" 1375038990 31804 3c62cee160c422a8e4ba066f00717345 ""
  "/Users/romancontreras/Library/texmf/tex/generic/pgf/libraries/pgflibraryfadings.code.tex" 1375038990 2647 defb4a59c2a1d36127a1ac6eebb4a5c1 ""
  "/Users/romancontreras/Library/texmf/tex/generic/pgf/libraries/pgflibrarypatterns.code.tex" 1375038990 7874 56ca58561783fbca7be095fa7178e656 ""
  "/Users/romancontreras/Library/texmf/tex/generic/pgf/libraries/pgflibraryplothandlers.code.tex" 1375038990 33583 acb9009694c9ea3bae758e1e9a8a7b26 ""
  "/Users/romancontreras/Library/texmf/tex/generic/pgf/libraries/shapes/pgflibraryshapes.arrows.code.tex" 1375038990 69900 cbd9fafb795a493fb2a3b73713994b78 ""
  "/Users/romancontreras/Library/texmf/tex/generic/pgf/libraries/shapes/pgflibraryshapes.callouts.code.tex" 1375038990 28333 0189c4cfb5044e700e6ba65a32295f01 ""
  "/Users/romancontreras/Library/texmf/tex/generic/pgf/libraries/shapes/pgflibraryshapes.geometric.code.tex" 1375038990 132566 291d42c3b23fdb5c47e51b36a5fea0c4 ""
  "/Users/romancontreras/Library/texmf/tex/generic/pgf/libraries/shapes/pgflibraryshapes.misc.code.tex" 1375038990 37737 ea6cb0b4e615f6048f20ee7153b3cc78 ""
  "/Users/romancontreras/Library/texmf/tex/generic/pgf/libraries/shapes/pgflibraryshapes.multipart.code.tex" 1375038990 49891 e74f8181c57d9359c941b6bee48fccc2 ""
  "/Users/romancontreras/Library/texmf/tex/generic/pgf/libraries/shapes/pgflibraryshapes.symbols.code.tex" 1375038990 77490 c9eaa50c5f4d849a0d948c9022a25d11 ""
  "/Users/romancontreras/Library/texmf/tex/generic/pgf/math/pgfmath.code.tex" 1375038990 454 9e9e7c99f4da4f41698be21eaef4938e ""
  "/Users/romancontreras/Library/texmf/tex/generic/pgf/math/pgfmathcalc.code.tex" 1375038990 13451 490152766f775e5f637d1679d6979042 ""
  "/Users/romancontreras/Library/texmf/tex/generic/pgf/math/pgfmathfloat.code.tex" 1375038990 91879 5b3cc8d94c47a5b742393a410f298724 ""
  "/Users/romancontreras/Library/texmf/tex/generic/pgf/math/pgfmathfunctions.base.code.tex" 1375038990 8606 58f348f09f02ad9c20b10c1005bd9663 ""
  "/Users/romancontreras/Library/texmf/tex/generic/pgf/math/pgfmathfunctions.basic.code.tex" 1375038990 21406 80daebd1f9f6a174d8dc77c5bc931bf4 ""
  "/Users/romancontreras/Library/texmf/tex/generic/pgf/math/pgfmathfunctions.code.tex" 1375038990 7820 5140d142921f39003e02ccedd072823a ""
  "/Users/romancontreras/Library/texmf/tex/generic/pgf/math/pgfmathfunctions.comparison.code.tex" 1375038990 3534 c7f28fbac13616513e513efe93b8569b ""
  "/Users/romancontreras/Library/texmf/tex/generic/pgf/math/pgfmathfunctions.integerarithmetics.code.tex" 1375038990 3167 7c9394e79aac27db96a92f9b2792b858 ""
  "/Users/romancontreras/Library/texmf/tex/generic/pgf/math/pgfmathfunctions.misc.code.tex" 1375038990 9165 99b6966558714c44c0b5ee44ae261ffc ""
  "/Users/romancontreras/Library/texmf/tex/generic/pgf/math/pgfmathfunctions.random.code.tex" 1375038990 6964 d4b5e82dabddda1c728063bb9c8a22ba ""
  "/Users/romancontreras/Library/texmf/tex/generic/pgf/math/pgfmathfunctions.round.code.tex" 1375038990 2688 139c6abc86761a6190c2f4bef5d752be ""
  "/Users/romancontreras/Library/texmf/tex/generic/pgf/math/pgfmathfunctions.trigonometric.code.tex" 1375038990 91075 1c1d7a7e8f0f737f72aa8becf0b37136 ""
  "/Users/romancontreras/Library/texmf/tex/generic/pgf/math/pgfmathparser.code.tex" 1375038990 33228 7fdadc7c94cfb941927da9792095cb5d ""
  "/Users/romancontreras/Library/texmf/tex/generic/pgf/math/pgfmathutil.code.tex" 1375038990 7099 f44d505bae6c7c2b933cdd63441db4b9 ""
  "/Users/romancontreras/Library/texmf/tex/generic/pgf/modules/pgfmoduledecorations.code.tex" 1375038990 71902 658cc1e13f73daec4225b8fc1c27600b ""
  "/Users/romancontreras/Library/texmf/tex/generic/pgf/modules/pgfmodulematrix.code.tex" 1375038990 20800 bd9bdd75844f3494b03b6aa0ccbe2ba9 ""
  "/Users/romancontreras/Library/texmf/tex/generic/pgf/modules/pgfmoduleplot.code.tex" 1375038990 10447 d96bd697b3bf1725933657acb652dbf6 ""
  "/Users/romancontreras/Library/texmf/tex/generic/pgf/modules/pgfmoduleshapes.code.tex" 1375038990 42381 15117a2cc79776b6cd456a072484e4f6 ""
  "/Users/romancontreras/Library/texmf/tex/generic/pgf/systemlayer/pgf.cfg" 1375038990 978 15af626ebd3d4d790aac19170dac04f2 ""
  "/Users/romancontreras/Library/texmf/tex/generic/pgf/systemlayer/pgfsys-common-pdf.def" 1375038990 3891 b76913d3846e7654fe7dc38834d0ce6b ""
  "/Users/romancontreras/Library/texmf/tex/generic/pgf/systemlayer/pgfsys-dvipdfmx.def" 1375038990 16970 df4ff0c255939b7ce13180f1c4d77a9e ""
  "/Users/romancontreras/Library/texmf/tex/generic/pgf/systemlayer/pgfsys-xetex.def" 1375038990 2784 dc100d28778752b91ebeafefc29168e4 ""
  "/Users/romancontreras/Library/texmf/tex/generic/pgf/systemlayer/pgfsys.code.tex" 1375038990 33776 f80ae30422e4f7c5a6ccc493f433f4d0 ""
  "/Users/romancontreras/Library/texmf/tex/generic/pgf/systemlayer/pgfsysprotocol.code.tex" 1375038990 1983 b5994ebbcee17f1ba3d29bb1bd696fcf ""
  "/Users/romancontreras/Library/texmf/tex/generic/pgf/systemlayer/pgfsyssoftpath.code.tex" 1375038990 7677 2eb6cc84c604878c08c9d943bbbc6e32 ""
  "/Users/romancontreras/Library/texmf/tex/generic/pgf/utilities/pgffor.code.tex" 1375038990 22209 e2ea05880293fb8690ad4ed9b73edfb7 ""
  "/Users/romancontreras/Library/texmf/tex/generic/pgf/utilities/pgfkeys.code.tex" 1375038990 36399 ecbcb06c9647b91f6635d0d5bfcd1fb8 ""
  "/Users/romancontreras/Library/texmf/tex/generic/pgf/utilities/pgfkeysfiltered.code.tex" 1375038990 33377 af391d6ad1bfcbe2278e191f48e43ba8 ""
  "/Users/romancontreras/Library/texmf/tex/generic/pgf/utilities/pgfrcs.code.tex" 1375038990 2390 b0a3c8d23cdd138c0177616fe3b06feb ""
  "/Users/romancontreras/Library/texmf/tex/generic/pgf/utilities/pgfutil-common.tex" 1375038990 15969 574070f5c843783386871e4d53c97e3f ""
  "/Users/romancontreras/Library/texmf/tex/generic/pgf/utilities/pgfutil-latex.def" 1375038990 4258 d058812f7db0dff399fbb1c4cb96b038 ""
  "/Users/romancontreras/Library/texmf/tex/latex/pgf/basiclayer/pgf.sty" 1375038990 1190 7fc0a2dca176dcabef03fed7aa3e5e7e ""
  "/Users/romancontreras/Library/texmf/tex/latex/pgf/basiclayer/pgfcore.sty" 1375038990 410 5bf12ea7330e5f12c445332a4fe9a263 ""
  "/Users/romancontreras/Library/texmf/tex/latex/pgf/compatibility/pgfcomp-version-0-65.sty" 1375038990 21115 facf03b7dbe5ea2f5f1dce1ac84b5d05 ""
  "/Users/romancontreras/Library/texmf/tex/latex/pgf/compatibility/pgfcomp-version-1-18.sty" 1375038990 1091 d9163d29def82ee90370c8a63667742c ""
  "/Users/romancontreras/Library/texmf/tex/latex/pgf/frontendlayer/tikz.sty" 1375038990 339 592cf35cba3d400082b8a9a5d0199d70 ""
  "/Users/romancontreras/Library/texmf/tex/latex/pgf/math/pgfmath.sty" 1375038990 306 0796eafca5e159e6ec2167a6d22d81b1 ""
  "/Users/romancontreras/Library/texmf/tex/latex/pgf/systemlayer/pgfsys.sty" 1375038990 362 4d082b7c595b2ffec199f5351c4303c9 ""
  "/Users/romancontreras/Library/texmf/tex/latex/pgf/utilities/pgffor.sty" 1375038990 348 8927fde343487e003b01a4c2ca34073b ""
  "/Users/romancontreras/Library/texmf/tex/latex/pgf/utilities/pgfkeys.sty" 1375038990 274 4cad6e665cc93ac2ac979039a94fa1e1 ""
  "/Users/romancontreras/Library/texmf/tex/latex/pgf/utilities/pgfrcs.sty" 1375038990 325 2bcd023400636339210573e2b3ee298b ""
  "/usr/local/texlive/2013/texmf-dist/tex/latex/base/article.cls" 1254151887 20571 b8bd218bf2e18b4f5817ee643cd9c515 ""
  "/usr/local/texlive/2013/texmf-dist/tex/latex/base/size10.clo" 1254151887 9042 248dfba326a1b8733d6bb8e0a3ac1e49 ""
  "/usr/local/texlive/2013/texmf-dist/tex/latex/graphics/graphics.sty" 1254151804 14183 42a8fc761b806986eef292369afc2988 ""
  "/usr/local/texlive/2013/texmf-dist/tex/latex/graphics/graphicx.sty" 1156702488 7882 3bd78469d444e8d494e27cfd7ca92719 ""
  "/usr/local/texlive/2013/texmf-dist/tex/latex/graphics/keyval.sty" 1156702488 2266 7054435e4584a41cf53b0a7ca624d0cb ""
  "/usr/local/texlive/2013/texmf-dist/tex/latex/graphics/trig.sty" 1156702488 3153 c50e6bd54d2dd3933fc52bcf369bec4a ""
  "/usr/local/texlive/2013/texmf-dist/tex/latex/latexconfig/color.cfg" 1254097189 802 7b8c8d72c24d795ed7720e4dfd29bff3 ""
  "/usr/local/texlive/2013/texmf-dist/tex/latex/latexconfig/graphics.cfg" 1278958963 3563 d35e897cae3b8c6848f6677b73370b54 ""
  "/usr/local/texlive/2013/texmf-dist/tex/latex/ms/everyshi.sty" 1177890616 3878 6aa7c08ff2621006e0603349e40a30a8 ""
  "/usr/local/texlive/2013/texmf-dist/tex/latex/xcolor/xcolor.sty" 1169481954 55224 a43bab84e0ac5e6efcaf9a98bde73a94 ""
  "/usr/local/texlive/2013/texmf-dist/tex/xelatex/xetex-def/xetex.def" 1369690666 15133 89e5eeafb0aa4a3a94dfe51054979861 ""
  "/usr/local/texlive/2013/texmf-dist/web2c/texmf.cnf" 1366045088 31707 0953c15448e216a6585e92ee639d2dc2 ""
  "/usr/local/texlive/2013/texmf-var/web2c/xetex/xelatex.fmt" 1372054606 3164674 dbdfe5473173c591b162386c70b24d1e ""
  "/usr/local/texlive/2013/texmf.cnf" 1369923207 577 cbc827f6294276973a1952e86e8ad73a ""
  "fig.aux" 1377563294 228 5aec35031bc3ea4b86296641ea61ec67 ""
  "fig.tex" 1377563291 14714 7dfd3d3d7228bd20962fbfa147863485 ""
  (generated)
  "fig.aux"
  "fig.pdf"
  "fig.log"
